material Cylinder/Black
{
  technique
  {
    pass ambient diffuse specular
    {
      ambient 0 0 0 1
      diffuse 0 0 0 1 
      specular 0 0 0 1
    }
  }
}

material Cylinder/White
{
  technique
  {
    pass ambient diffuse specular
    {
      ambient 1 1 1 1
      diffuse 1 1 1 1 
      specular 1 1 1 1
    }
  }
}